{
    "key": "group_623b43b79702b",
    "title": "Image Banner",
    "fields": [
        {
            "key": "field_623b43c683ffc",
            "label": "image banner",
            "name": "image_banner",
            "type": "image",
            "instructions": "",
            "required": 0,
            "conditional_logic": 0,
            "wrapper": {
                "width": "",
                "class": "",
                "id": ""
            },
            "return_format": "id",
            "preview_size": "medium",
            "library": "all",
            "min_width": "",
            "min_height": "",
            "min_size": "",
            "max_width": "",
            "max_height": "",
            "max_size": "",
            "mime_types": ""
        }
    ],
    "location": [
        [
            {
                "param": "post_type",
                "operator": "==",
                "value": "recrutement"
            }
        ],
        [
            {
                "param": "post_type",
                "operator": "==",
                "value": "testimonial"
            }
        ],
        [
            {
                "param": "post_type",
                "operator": "==",
                "value": "training"
            }
        ],
        [
            {
                "param": "post_type",
                "operator": "==",
                "value": "webinar"
            }
        ],
        [
            {
                "param": "post_type",
                "operator": "==",
                "value": "post"
            }
        ],
        [
            {
                "param": "page_template",
                "operator": "==",
                "value": "templates\/tpl-contact.php"
            }
        ],
        [
            {
                "param": "page_template",
                "operator": "==",
                "value": "templates\/tpl-testimonials-archive.php"
            }
        ],
        [
            {
                "param": "page_template",
                "operator": "==",
                "value": "templates\/tpl-training-archive.php"
            }
        ],
        [
            {
                "param": "page_template",
                "operator": "==",
                "value": "templates\/tpl-webinar-archive.php"
            }
        ],
        [
            {
                "param": "page_template",
                "operator": "==",
                "value": "templates\/tpl-white-paper.php"
            }
        ],
        [
            {
                "param": "page_template",
                "operator": "==",
                "value": "templates\/tpl-blog-archive.php"
            }
        ]
    ],
    "menu_order": 0,
    "position": "side",
    "style": "default",
    "label_placement": "top",
    "instruction_placement": "label",
    "hide_on_screen": "",
    "active": true,
    "description": "",
    "show_in_rest": 0,
    "modified": 1648051621
}